4 Imputations des données par des techniques de Machine learning | Dossier Panel
…
countries_data %>% group_by(country_name) %>%
  count()

## # A tibble: 31 x 2
## # Groups:   country_name [31]
##    country_name     n
##    <chr>        <int>
##  1 Angola          20
##  2 Australia       20
##  3 Austria         20
##  4 Bolivia         20
##  5 Brazil          20
##  6 Burkina Faso    20
##  7 Burundi         20
##  8 Cabo Verde      20
##  9 Cambodia        20
## 10 Cameroon        20
## # ... with 21 more rows
…
